module Hooks = Toolkit__Hooks
module Identifier = Toolkit__Identifier
module Request = Toolkit__Request
module Unleash = Toolkit__Unleash
module Primitives = Toolkit__Primitives
module Decoders = Toolkit__Decoders
module Fetcher = Toolkit__Fetcher
module Router = Toolkit__Router
module Ui = Toolkit__Ui
module Utils = Toolkit__Utils
module Form = Toolkit__Form
module FormValidationFunctions = Toolkit__FormValidationFunctions
module BrowserLogger = Toolkit__BrowserLogger
module NativeLogger = Toolkit__NativeLogger
module Intl = Toolkit__Intl
module LocalesHelpers = Toolkit__LocalesHelpers
