open Toolkit__Ui

@react.component
let make = () =>
  <div>
    <Reference reference="07868-9897687-0898" />
    <div className="w-48 mt-4">
      <Reference reference="07868-9897687-0898" />
    </div>
  </div>
