@react.component
let make = () =>
  <Toolkit__Ui_PortalDropdown dropdownClassName="w-60" label={"overflow"->React.string}>
    {_ => <div> {"Dropdown content !"->React.string} </div>}
  </Toolkit__Ui_PortalDropdown>
